{
  "name": "jetstack-vault_tmp",
  "version": "0.1.0",
  "author": "jetstack",
  "summary": "Install/configure a vault client",
  "license": "Apache-2.0",
  "source": "",
  "project_page": null,
  "issues_url": null,
  "dependencies": [
    {"name":"puppetlabs-stdlib","version_requirement":">= 4.2.0 < 5.0.0"},
    {"name":"puppet-archive","version_requirement":">= 1.1.2 < 1.2.0"},
    {"name":"camptocamp-systemd","version_requirement":">= 0.4.0 < 0.5.0"}
  ],
  "data_provider": null
}

